-- Merging decision tree log ---
manifest
ADDED from /home/pelcia/kakaton/android/app/src/main/AndroidManifest.xml:1:1-39:12
INJECTED from /home/pelcia/kakaton/android/app/src/main/AndroidManifest.xml:1:1-39:12
INJECTED from /home/pelcia/kakaton/android/app/src/main/AndroidManifest.xml:1:1-39:12
INJECTED from /home/pelcia/kakaton/android/app/src/main/AndroidManifest.xml:1:1-39:12
MERGED from [:url_launcher] /home/pelcia/kakaton/build/url_launcher/intermediates/manifests/full/debug/AndroidManifest.xml:2:1-14:12
INJECTED from /home/pelcia/kakaton/android/app/src/main/AndroidManifest.xml:1:1-39:12
INJECTED from /home/pelcia/kakaton/android/app/src/main/AndroidManifest.xml:1:1-39:12
INJECTED from /home/pelcia/kakaton/android/app/src/main/AndroidManifest.xml:1:1-39:12
	package
		ADDED from /home/pelcia/kakaton/android/app/src/main/AndroidManifest.xml:2:5-34
		INJECTED from /home/pelcia/kakaton/android/app/src/main/AndroidManifest.xml
		INJECTED from /home/pelcia/kakaton/android/app/src/main/AndroidManifest.xml
	android:versionName
		INJECTED from /home/pelcia/kakaton/android/app/src/main/AndroidManifest.xml
		ADDED from /home/pelcia/kakaton/android/app/src/main/AndroidManifest.xml:1:1-39:12
		INJECTED from /home/pelcia/kakaton/android/app/src/main/AndroidManifest.xml
	android:versionCode
		INJECTED from /home/pelcia/kakaton/android/app/src/main/AndroidManifest.xml
		ADDED from /home/pelcia/kakaton/android/app/src/main/AndroidManifest.xml:1:1-39:12
		INJECTED from /home/pelcia/kakaton/android/app/src/main/AndroidManifest.xml
	xmlns:android
		ADDED from /home/pelcia/kakaton/android/app/src/main/AndroidManifest.xml:1:11-69
uses-permission#android.permission.INTERNET
ADDED from /home/pelcia/kakaton/android/app/src/main/AndroidManifest.xml:8:5-66
	android:name
		ADDED from /home/pelcia/kakaton/android/app/src/main/AndroidManifest.xml:8:22-64
application
ADDED from /home/pelcia/kakaton/android/app/src/main/AndroidManifest.xml:15:5-38:19
MERGED from [:url_launcher] /home/pelcia/kakaton/build/url_launcher/intermediates/manifests/full/debug/AndroidManifest.xml:7:5-12:19
MERGED from [:url_launcher] /home/pelcia/kakaton/build/url_launcher/intermediates/manifests/full/debug/AndroidManifest.xml:7:5-12:19
	android:label
		ADDED from /home/pelcia/kakaton/android/app/src/main/AndroidManifest.xml:17:9-32
	android:icon
		ADDED from /home/pelcia/kakaton/android/app/src/main/AndroidManifest.xml:18:9-43
	android:name
		ADDED from /home/pelcia/kakaton/android/app/src/main/AndroidManifest.xml:16:9-57
activity#com.example.kakaton.MainActivity
ADDED from /home/pelcia/kakaton/android/app/src/main/AndroidManifest.xml:19:9-37:20
	android:launchMode
		ADDED from /home/pelcia/kakaton/android/app/src/main/AndroidManifest.xml:21:13-43
	android:hardwareAccelerated
		ADDED from /home/pelcia/kakaton/android/app/src/main/AndroidManifest.xml:24:13-47
	android:windowSoftInputMode
		ADDED from /home/pelcia/kakaton/android/app/src/main/AndroidManifest.xml:25:13-55
	android:configChanges
		ADDED from /home/pelcia/kakaton/android/app/src/main/AndroidManifest.xml:23:13-137
	android:theme
		ADDED from /home/pelcia/kakaton/android/app/src/main/AndroidManifest.xml:22:13-47
	android:name
		ADDED from /home/pelcia/kakaton/android/app/src/main/AndroidManifest.xml:20:13-41
meta-data#io.flutter.app.android.SplashScreenUntilFirstFrame
ADDED from /home/pelcia/kakaton/android/app/src/main/AndroidManifest.xml:30:13-32:40
	android:value
		ADDED from /home/pelcia/kakaton/android/app/src/main/AndroidManifest.xml:32:17-37
	android:name
		ADDED from /home/pelcia/kakaton/android/app/src/main/AndroidManifest.xml:31:17-82
intent-filter#action:name:android.intent.action.MAIN+category:name:android.intent.category.LAUNCHER
ADDED from /home/pelcia/kakaton/android/app/src/main/AndroidManifest.xml:33:13-36:29
action#android.intent.action.MAIN
ADDED from /home/pelcia/kakaton/android/app/src/main/AndroidManifest.xml:34:17-68
	android:name
		ADDED from /home/pelcia/kakaton/android/app/src/main/AndroidManifest.xml:34:25-66
category#android.intent.category.LAUNCHER
ADDED from /home/pelcia/kakaton/android/app/src/main/AndroidManifest.xml:35:17-76
	android:name
		ADDED from /home/pelcia/kakaton/android/app/src/main/AndroidManifest.xml:35:27-74
uses-sdk
INJECTED from /home/pelcia/kakaton/android/app/src/main/AndroidManifest.xml reason: use-sdk injection requested
INJECTED from /home/pelcia/kakaton/android/app/src/main/AndroidManifest.xml
INJECTED from /home/pelcia/kakaton/android/app/src/main/AndroidManifest.xml
MERGED from [:url_launcher] /home/pelcia/kakaton/build/url_launcher/intermediates/manifests/full/debug/AndroidManifest.xml:5:5-44
MERGED from [:url_launcher] /home/pelcia/kakaton/build/url_launcher/intermediates/manifests/full/debug/AndroidManifest.xml:5:5-44
INJECTED from /home/pelcia/kakaton/android/app/src/main/AndroidManifest.xml
INJECTED from /home/pelcia/kakaton/android/app/src/main/AndroidManifest.xml
	android:targetSdkVersion
		INJECTED from /home/pelcia/kakaton/android/app/src/main/AndroidManifest.xml
		ADDED from /home/pelcia/kakaton/android/app/src/main/AndroidManifest.xml
		INJECTED from /home/pelcia/kakaton/android/app/src/main/AndroidManifest.xml
	android:minSdkVersion
		INJECTED from /home/pelcia/kakaton/android/app/src/main/AndroidManifest.xml
		ADDED from /home/pelcia/kakaton/android/app/src/main/AndroidManifest.xml
		INJECTED from /home/pelcia/kakaton/android/app/src/main/AndroidManifest.xml
activity#io.flutter.plugins.urllauncher.UrlLauncherPlugin$WebViewActivity
ADDED from [:url_launcher] /home/pelcia/kakaton/build/url_launcher/intermediates/manifests/full/debug/AndroidManifest.xml:8:9-11:74
	android:exported
		ADDED from [:url_launcher] /home/pelcia/kakaton/build/url_launcher/intermediates/manifests/full/debug/AndroidManifest.xml:10:13-37
	android:theme
		ADDED from [:url_launcher] /home/pelcia/kakaton/build/url_launcher/intermediates/manifests/full/debug/AndroidManifest.xml:11:13-71
	android:name
		ADDED from [:url_launcher] /home/pelcia/kakaton/build/url_launcher/intermediates/manifests/full/debug/AndroidManifest.xml:9:13-92
